module gitlab.com/freect/go-dicom

go 1.18

require (
	github.com/golang/mock v1.4.4
	github.com/google/go-cmp v0.5.2
	golang.org/x/text v0.3.8
)

require golang.org/x/xerrors v0.0.0-20191204190536-9bdfabe68543 // indirect
